<svg xmlns="http://www.w3.org/2000/svg" xmlns:xlink="http://www.w3.org/1999/xlink" preserveAspectRatio="xMidYMid" width="50" height="49.969" viewBox="0 0 50 49.969">
  <defs>
    <style>
      .cls-1 {
        fill: #111;
        fill-rule: evenodd;
      }
    </style>
  </defs>
  <path d="M25.012,49.959 C11.203,49.959 0.009,38.778 0.009,24.985 C0.009,11.192 11.203,0.011 25.012,0.011 C38.821,0.011 50.014,11.192 50.014,24.985 C50.014,38.778 38.821,49.959 25.012,49.959 ZM25.012,3.133 C12.948,3.133 3.135,12.935 3.135,24.985 C3.135,37.034 12.948,46.837 25.012,46.837 C37.075,46.837 46.888,37.034 46.888,24.985 C46.888,12.935 37.075,3.133 25.012,3.133 ZM22.105,33.733 L20.885,32.315 L13.971,24.285 L16.226,21.857 L21.828,25.977 L34.074,15.931 L36.356,18.350 L23.375,32.361 L22.105,33.733 Z" class="cls-1"/>
</svg>
